Time,Pack Voltage,Cell 1,Cell 2,Cell 3,Cell 4,Cell 5,Cell 6,Cell 7,Cell 8,Cell 9,Cell 10,Cell 11,Cell 12,Cell 13,Cell 14
3/13/2017 13:33:00,52.4226,3.9019,3.7513,3.6916,3.6929,3.6946,3.6901,3.8799,3.8121,3.6941,3.6932,3.6934,3.6952,3.6928,3.8395
3/13/2017 13:33:15,52.5453,3.918,3.7676,3.6993,3.7005,3.7022,3.6977,3.8875,3.82,3.7014,3.7006,3.7006,3.7027,3.7003,3.8469
3/13/2017 13:33:30,52.6312,3.93,3.7795,3.7046,3.7059,3.7077,3.7031,3.8928,3.8254,3.7064,3.7055,3.7054,3.7077,3.7052,3.852
3/13/2017 13:33:45,52.6977,3.9387,3.7885,3.7086,3.7098,3.7114,3.7073,3.8971,3.8296,3.7107,3.7098,3.7096,3.7121,3.7095,3.8561
3/13/2017 13:34:00,52.7549,3.9468,3.7964,3.7121,3.7132,3.7149,3.7103,3.9,3.8328,3.7139,3.7132,3.7131,3.7156,3.7129,3.8597
3/13/2017 13:34:15,52.7999,3.9531,3.8027,3.7149,3.716,3.7178,3.7131,3.9028,3.8354,3.7166,3.7158,3.7157,3.7181,3.7157,3.8622
3/13/2017 13:34:30,52.8376,3.958,3.8078,3.7171,3.7183,3.7202,3.7154,3.9049,3.838,3.7189,3.7183,3.718,3.7206,3.7181,3.8646
3/13/2017 13:34:45,52.8714,3.9628,3.8123,3.7192,3.7203,3.7221,3.7173,3.9068,3.8398,3.721,3.7203,3.7201,3.7227,3.7201,3.8666
3/13/2017 13:35:00,52.9014,3.9669,3.8166,3.7212,3.7221,3.7238,3.7193,3.9086,3.8416,3.7227,3.722,3.7217,3.7245,3.7219,3.8685
3/13/2017 13:35:15,52.9259,3.9704,3.82,3.7227,3.7238,3.7255,3.7209,3.9101,3.843,3.7244,3.7236,3.7235,3.7262,3.7234,3.8699
3/13/2017 13:35:30,52.9519,3.9734,3.8231,3.7241,3.7251,3.7268,3.7222,3.9113,3.8446,3.726,3.7253,3.7251,3.7277,3.7252,3.872
3/13/2017 13:35:45,52.9755,3.9768,3.8263,3.7257,3.7266,3.7284,3.7237,3.913,3.8462,3.7272,3.7266,3.7263,3.7291,3.7265,3.8729
3/13/2017 13:36:00,52.9941,3.9791,3.8289,3.7268,3.7279,3.7296,3.7249,3.914,3.8473,3.7285,3.7277,3.7275,3.7302,3.7276,3.8741
3/13/2017 13:36:15,53.0132,3.9815,3.8313,3.7281,3.7289,3.7306,3.726,3.9149,3.8483,3.7297,3.7291,3.7288,3.7316,3.729,3.8754
3/13/2017 13:36:30,53.0327,3.9842,3.834,3.7293,3.7302,3.7319,3.7272,3.9162,3.8495,3.7309,3.7302,3.7298,3.7327,3.7302,3.8763
3/13/2017 13:36:45,53.0529,3.9868,3.8365,3.7306,3.7314,3.7331,3.7284,3.9175,3.8508,3.7322,3.7313,3.7312,3.734,3.7314,3.8777
3/13/2017 13:37:00,53.0697,3.9889,3.8389,3.7317,3.7325,3.7341,3.7296,3.9186,3.8518,3.7331,3.7324,3.7322,3.7349,3.7325,3.8785
3/13/2017 13:37:15,53.0852,3.9905,3.8408,3.7326,3.7334,3.7351,3.7306,3.9192,3.8528,3.7343,3.7335,3.7332,3.7362,3.7337,3.8798
3/13/2017 13:37:30,53.1032,3.9927,3.843,3.7338,3.7347,3.7363,3.7317,3.9204,3.8537,3.7354,3.7345,3.7342,3.7372,3.7347,3.8809
3/13/2017 13:37:45,53.1198,3.9947,3.8451,3.7348,3.7356,3.7372,3.7326,3.9215,3.8547,3.7363,3.7357,3.7355,3.7382,3.7359,3.882
3/13/2017 13:38:00,53.1356,3.9967,3.8471,3.7359,3.7367,3.7384,3.7338,3.9222,3.8558,3.7375,3.7367,3.7365,3.7393,3.7369,3.883
3/13/2017 13:38:15,53.1535,3.9987,3.8494,3.7371,3.7378,3.7394,3.7349,3.9234,3.8569,3.7386,3.7376,3.7374,3.7405,3.7379,3.8839
3/13/2017 13:38:30,53.1688,4.0005,3.8511,3.738,3.7387,3.7404,3.7357,3.9243,3.8578,3.7395,3.7388,3.7385,3.7416,3.739,3.8849
3/13/2017 13:38:45,53.1857,4.0026,3.8532,3.7391,3.7398,3.7415,3.7369,3.9253,3.8589,3.7407,3.7399,3.7395,3.7426,3.7402,3.8862
3/13/2017 13:39:00,53.2022,4.0045,3.8552,3.7402,3.7409,3.7425,3.7379,3.9265,3.8599,3.7416,3.7409,3.7406,3.7435,3.7411,3.8869
3/13/2017 13:39:15,53.2183,4.0061,3.857,3.7412,3.7419,3.7435,3.7389,3.9272,3.861,3.7427,3.742,3.7418,3.7446,3.7421,3.8883
3/13/2017 13:39:30,53.2359,4.0083,3.8591,3.7424,3.7431,3.7445,3.74,3.9285,3.8621,3.7439,3.7431,3.7429,3.7459,3.7435,3.8892
3/13/2017 13:39:45,53.2524,4.0102,3.8611,3.7434,3.7442,3.7457,3.741,3.9295,3.8633,3.7449,3.744,3.7437,3.7468,3.7444,3.8902
3/13/2017 13:40:00,53.2682,4.0119,3.8627,3.7445,3.7452,3.7468,3.7421,3.9303,3.864,3.746,3.7452,3.7448,3.7478,3.7455,3.8912
3/13/2017 13:40:15,53.2843,4.0139,3.8648,3.7455,3.7462,3.7478,3.7432,3.9314,3.8652,3.7471,3.7463,3.746,3.7489,3.7467,3.8924
3/13/2017 13:40:30,53.3024,4.0159,3.8671,3.7467,3.7473,3.7489,3.7443,3.9325,3.8663,3.748,3.7473,3.747,3.7499,3.7477,3.8935
3/13/2017 13:40:45,53.319,4.0178,3.8688,3.7478,3.7484,3.75,3.7454,3.9337,3.8674,3.7493,3.7484,3.748,3.7511,3.7489,3.8945
3/13/2017 13:41:00,53.3362,4.0197,3.8708,3.7488,3.7494,3.7511,3.7465,3.9345,3.8684,3.7504,3.7495,3.7492,3.7523,3.7501,3.8955
3/13/2017 13:41:15,53.3535,4.0216,3.873,3.75,3.7506,3.7523,3.7477,3.9356,3.8695,3.7515,3.7505,3.7501,3.7536,3.7512,3.8968
3/13/2017 13:41:30,53.3703,4.0234,3.8746,3.7511,3.7517,3.7532,3.7487,3.9367,3.8705,3.7526,3.7518,3.7515,3.7545,3.7523,3.8979
3/13/2017 13:41:45,53.388,4.0256,3.8769,3.7522,3.7528,3.7543,3.7497,3.9378,3.8718,3.7537,3.7529,3.7526,3.7555,3.7534,3.8988
3/13/2017 13:42:00,53.4055,4.0275,3.8788,3.7534,3.754,3.7556,3.7511,3.9387,3.8729,3.7549,3.7539,3.7536,3.7568,3.7546,3.9001
3/13/2017 13:42:15,53.4225,4.0293,3.8807,3.7545,3.755,3.7567,3.7522,3.9398,3.874,3.756,3.7552,3.7548,3.7579,3.7557,3.9011
3/13/2017 13:42:30,53.4419,4.0313,3.883,3.7557,3.7563,3.7577,3.7533,3.9412,3.8752,3.7572,3.7563,3.756,3.7592,3.7571,3.9024
3/13/2017 13:42:45,53.0823,3.8809,3.8806,3.757,3.752,3.7518,3.7475,3.926,3.8696,3.6125,3.7611,3.7527,3.7518,3.7515,3.8873
