Time,Pack Voltage,Cell 1,Cell 2,Cell 3,Cell 4,Cell 5,Cell 6,Cell 7,Cell 8,Cell 9,Cell 10,Cell 11,Cell 12,Cell 13,Cell 14
3/15/2017 16:20:45,48.5514,3.3414,3.501,3.5038,3.5021,3.5033,3.505,3.4021,3.4347,3.4996,3.501,3.5018,3.4993,3.5039,3.3524
3/15/2017 16:21:00,48.4585,3.3339,3.4942,3.4969,3.4953,3.4967,3.4983,3.3948,3.4276,3.4929,3.4943,3.4951,3.4926,3.4973,3.3452
3/15/2017 16:21:15,48.3884,3.3286,3.4893,3.4919,3.4904,3.4919,3.4935,3.3895,3.4226,3.4884,3.4899,3.4908,3.4882,3.4929,3.3405
3/15/2017 16:21:30,48.3367,3.3247,3.4857,3.4885,3.4871,3.4885,3.49,3.3859,3.4191,3.4845,3.4861,3.4871,3.4842,3.489,3.3363
3/15/2017 16:21:45,48.2919,3.3213,3.4827,3.4853,3.4838,3.4853,3.4868,3.3824,3.4157,3.4815,3.483,3.484,3.4812,3.486,3.3329
3/15/2017 16:22:00,48.2558,3.3184,3.4799,3.4828,3.4812,3.4828,3.4842,3.3797,3.4129,3.4791,3.4806,3.4815,3.4787,3.4836,3.3304
3/15/2017 16:22:15,48.2244,3.316,3.4779,3.4807,3.479,3.4807,3.4821,3.3772,3.4106,3.4767,3.4783,3.4793,3.4765,3.4813,3.3278
3/15/2017 16:22:30,48.1951,3.3139,3.4758,3.4786,3.4771,3.4786,3.4801,3.3752,3.4086,3.4747,3.4762,3.4771,3.4744,3.4792,3.3256
3/15/2017 16:22:45,48.1698,3.3117,3.474,3.4767,3.4753,3.4768,3.4783,3.3733,3.4066,3.473,3.4745,3.4756,3.4726,3.4776,3.3238
3/15/2017 16:23:00,48.1472,3.3101,3.4724,3.4751,3.4735,3.4752,3.4766,3.3715,3.4049,3.4713,3.4729,3.4738,3.4711,3.4759,3.3221
3/15/2017 16:23:15,48.1245,3.3085,3.4708,3.4737,3.4721,3.4738,3.4751,3.3699,3.4033,3.4697,3.4713,3.4723,3.4694,3.4743,3.3203
3/15/2017 16:23:30,48.1041,3.3067,3.4694,3.4722,3.4706,3.4723,3.4736,3.3683,3.4018,3.4684,3.47,3.471,3.468,3.4729,3.3186
3/15/2017 16:23:45,48.084,3.3052,3.468,3.4708,3.4693,3.4709,3.4723,3.3668,3.4002,3.467,3.4685,3.4695,3.4667,3.4716,3.3172
3/15/2017 16:24:00,48.065,3.3037,3.4667,3.4695,3.4681,3.4696,3.471,3.3654,3.3989,3.4656,3.4672,3.4681,3.4653,3.4702,3.3157
3/15/2017 16:24:15,48.0483,3.3025,3.4655,3.4683,3.4668,3.4685,3.4698,3.3641,3.3976,3.4641,3.4659,3.4669,3.4641,3.4691,3.3144
3/15/2017 16:24:30,48.0296,3.301,3.4642,3.467,3.4655,3.4673,3.4685,3.3627,3.3963,3.4631,3.4647,3.4657,3.4628,3.4678,3.313
3/15/2017 16:24:45,48.0128,3.2998,3.4631,3.4658,3.4645,3.4661,3.4675,3.3615,3.3951,3.4618,3.4634,3.4644,3.4616,3.4666,3.3116
3/15/2017 16:25:00,47.9969,3.2985,3.4619,3.4647,3.4633,3.465,3.4662,3.3604,3.3938,3.4607,3.4623,3.4633,3.4605,3.4654,3.3105
3/15/2017 16:25:15,47.9797,3.2972,3.4607,3.4635,3.462,3.4638,3.4651,3.359,3.3925,3.4596,3.4612,3.4622,3.4594,3.4643,3.3092
3/15/2017 16:25:30,47.964,3.296,3.4598,3.4625,3.4611,3.4627,3.464,3.3579,3.3914,3.4584,3.46,3.4609,3.4581,3.4632,3.3079
3/15/2017 16:25:45,47.9473,3.2947,3.4585,3.4612,3.4599,3.4616,3.4629,3.3566,3.3902,3.4573,3.4587,3.4598,3.4571,3.4621,3.3067
3/15/2017 16:26:00,47.9312,3.2935,3.4573,3.46,3.4587,3.4604,3.4617,3.3554,3.3889,3.4563,3.4578,3.4587,3.456,3.461,3.3055
3/15/2017 16:26:15,47.9167,3.2924,3.4563,3.459,3.4576,3.4594,3.4607,3.3542,3.3878,3.4551,3.4567,3.4576,3.4549,3.4599,3.3045
3/15/2017 16:26:30,47.9008,3.2912,3.4553,3.4579,3.4567,3.4584,3.4597,3.3531,3.3868,3.4539,3.4556,3.4565,3.4537,3.4588,3.3032
3/15/2017 16:26:45,47.885,3.2899,3.4542,3.4568,3.4556,3.4572,3.4586,3.3519,3.3856,3.4529,3.4545,3.4554,3.4526,3.4576,3.3018
3/15/2017 16:27:00,47.8696,3.2887,3.453,3.4558,3.4544,3.4562,3.4574,3.3508,3.3843,3.4519,3.4535,3.4545,3.4516,3.4567,3.3008
3/15/2017 16:27:15,47.8543,3.2876,3.452,3.4547,3.4535,3.4552,3.4565,3.3497,3.3833,3.4507,3.4523,3.4532,3.4505,3.4556,3.2995
3/15/2017 16:27:30,47.8396,3.2864,3.4509,3.4536,3.4525,3.4542,3.4554,3.3486,3.3822,3.4496,3.4512,3.4522,3.4495,3.4544,3.2984
3/15/2017 16:27:45,47.8238,3.2852,3.4498,3.4525,3.4514,3.4531,3.4544,3.3475,3.3811,3.4486,3.4501,3.4511,3.4483,3.4534,3.2973
3/15/2017 16:28:00,47.8087,3.2841,3.4488,3.4515,3.4504,3.4521,3.4535,3.3464,3.38,3.4476,3.449,3.4499,3.4472,3.4523,3.2959
3/15/2017 16:28:15,47.7941,3.2829,3.4478,3.4505,3.4493,3.451,3.4523,3.3452,3.3788,3.4463,3.4479,3.449,3.4461,3.4513,3.2949
3/15/2017 16:28:30,47.7781,3.2816,3.4467,3.4493,3.4482,3.45,3.4513,3.3441,3.3776,3.4455,3.4469,3.4479,3.4452,3.4502,3.2936
3/15/2017 16:28:45,47.764,3.2806,3.4458,3.4484,3.4473,3.449,3.4503,3.3431,3.3766,3.4444,3.4459,3.4468,3.4441,3.4492,3.2925
3/15/2017 16:29:00,47.7484,3.2794,3.4446,3.4473,3.4462,3.4479,3.4491,3.3419,3.3755,3.4433,3.4447,3.4458,3.443,3.448,3.2913
3/15/2017 16:29:15,47.7326,3.2782,3.4435,3.4462,3.445,3.4468,3.4481,3.3407,3.3742,3.4422,3.4437,3.4447,3.442,3.4471,3.2902
3/15/2017 16:29:30,47.7181,3.2771,3.4425,3.4451,3.4442,3.4459,3.4471,3.3396,3.3731,3.4412,3.4426,3.4435,3.4409,3.446,3.289
3/15/2017 16:29:45,47.7026,3.2758,3.4415,3.4441,3.443,3.4448,3.4461,3.3386,3.3722,3.44,3.4415,3.4424,3.4398,3.4449,3.2879
3/15/2017 16:30:00,47.6884,3.2748,3.4404,3.4431,3.442,3.4438,3.4451,3.3375,3.3711,3.4391,3.4405,3.4415,3.4388,3.4439,3.2867
3/15/2017 16:30:15,47.6735,3.2737,3.4394,3.4419,3.4409,3.4427,3.4439,3.3363,3.3699,3.438,3.4395,3.4404,3.4377,3.4427,3.2856
3/15/2017 16:30:30,47.6182,3.2807,3.4448,3.4475,3.4467,3.4477,3.449,3.342,3.3752,3.3308,3.4399,3.4418,3.4371,3.4426,3.2924
